<svg width="25" height="26" viewBox="0 0 25 26" fill="none" xmlns="http://www.w3.org/2000/svg">
<path d="M12.5049 24.9218C19.0864 24.9218 24.4218 19.5864 24.4218 13.0049C24.4218 6.42337 19.0864 1.088 12.5049 1.088C5.92339 1.088 0.588013 6.42337 0.588013 13.0049C0.588013 19.5864 5.92339 24.9218 12.5049 24.9218Z" fill="#FDFDFD"/>
<path d="M12.5859 5.27792C14.5085 5.3084 16.3548 5.84456 17.9624 7.08868C19.013 7.9018 19.8088 8.91532 20.2276 10.1861C20.8611 12.1087 20.5438 13.8971 19.3918 15.5461C19.013 16.0882 18.5538 16.5588 18.0322 16.9643C17.8794 17.0831 17.8455 17.1928 17.8959 17.3824C18.088 18.1042 18.0376 18.8154 17.7362 19.5024C17.5718 19.8774 17.3381 20.2008 16.999 20.4397C16.4457 20.8297 15.7789 20.8299 15.2276 20.4379C14.8389 20.1614 14.5954 19.7774 14.4225 19.3414C14.3932 19.2675 14.3913 19.1355 14.3193 19.136C14.2189 19.1367 14.2342 19.2733 14.2035 19.3502C14.0477 19.7409 13.8191 20.0745 13.4751 20.3225C12.829 20.7882 11.978 20.7399 11.3864 20.206C11.1123 19.9586 10.9148 19.6609 10.7891 19.3145C10.7696 19.2606 10.7524 19.2055 10.7279 19.1539C10.7097 19.1153 10.6757 19.1118 10.6567 19.1522C10.6254 19.2188 10.6009 19.2886 10.5749 19.3576C10.4455 19.7007 10.256 20.0046 9.99132 20.2605C9.33835 20.8915 8.43693 20.8898 7.78641 20.2524C7.31228 19.7878 7.08668 19.206 7.02357 18.5586C6.9827 18.1399 6.99554 17.7192 7.12755 17.3144C7.17429 17.1708 7.13411 17.0907 7.02131 17.0036C6.33168 16.4706 5.7571 15.8325 5.31022 15.0829C4.71447 14.0838 4.41841 13.0014 4.46663 11.8386C4.52523 10.4243 5.05081 9.18757 5.96712 8.11681C7.04258 6.86005 8.41155 6.06928 9.99015 5.622C10.8087 5.38974 11.6466 5.28919 12.5859 5.27792ZM12.4963 15.7389C13.1253 15.7416 13.7417 15.6563 14.3429 15.471C15.2074 15.2045 15.9716 14.7736 16.5771 14.0883C17.6045 12.9254 17.6394 11.4015 16.6658 10.1931C16.3529 9.80478 15.9732 9.49284 15.5458 9.23882C14.7689 8.77704 13.9254 8.534 13.0264 8.46099C11.8861 8.36828 10.7984 8.55242 9.77464 9.06624C9.02474 9.44266 8.39754 9.96344 7.99407 10.7147C7.53101 11.5768 7.50642 12.4569 7.93223 13.3408C8.27562 14.0537 8.82854 14.5706 9.5025 14.9639C10.4265 15.5033 11.4326 15.7346 12.4963 15.7389Z" fill="#6E44FF"/>
</svg>
